(module SW_SPST_HTB197 (layer F.Cu) (tedit 5CB935C2)
  (fp_text reference REF** (at -0.03 2.07) (layer F.SilkS)
    (effects (font (size 1 1) (thickness 0.15)))
  )
  (fp_text value SW_SPST_HTB197 (at 0.02 -3.72) (layer F.Fab)
    (effects (font (size 1 1) (thickness 0.15)))
  )
  (fp_line (start 4.42 -2.77) (end 4.42 1.12) (layer F.CrtYd) (width 0.05))
  (fp_line (start -4.42 -2.77) (end -4.42 1.12) (layer F.CrtYd) (width 0.05))
  (fp_line (start -4.42 -2.77) (end 4.42 -2.77) (layer F.CrtYd) (width 0.05))
  (fp_line (start -4.42 1.12) (end 4.42 1.12) (layer F.CrtYd) (width 0.05))
  (fp_line (start -4.29 0.99) (end -4.29 -0.01) (layer F.SilkS) (width 0.12))
  (fp_line (start -4.29 0.99) (end -1.76 0.99) (layer F.SilkS) (width 0.12))
  (fp_line (start 4.29 0.99) (end 4.29 -0.01) (layer F.SilkS) (width 0.12))
  (fp_line (start 4.29 0.99) (end 3.29 0.99) (layer F.SilkS) (width 0.12))
  (fp_line (start 4.29 -2.64) (end 4.29 -1.64) (layer F.SilkS) (width 0.12))
  (fp_line (start 4.29 -2.64) (end 3.29 -2.64) (layer F.SilkS) (width 0.12))
  (fp_line (start -4.29 -2.64) (end -4.29 -1.64) (layer F.SilkS) (width 0.12))
  (fp_line (start -4.29 -2.64) (end -3.29 -2.64) (layer F.SilkS) (width 0.12))
  (fp_line (start 4.17 -2.52) (end 4.17 0.87) (layer F.Fab) (width 0.1))
  (fp_line (start -4.17 -2.52) (end -4.17 0.87) (layer F.Fab) (width 0.1))
  (fp_line (start -4.17 -2.52) (end 4.17 -2.52) (layer F.Fab) (width 0.1))
  (fp_line (start -4.17 0.87) (end 4.17 0.87) (layer F.Fab) (width 0.1))
  (pad "" smd rect (at -3.9 -1.95) (size 0.3 0.9) (layers F.Cu F.Paste F.Mask))
  (pad "" smd rect (at 3.9 -1.95) (size 0.3 0.9) (layers F.Cu F.Paste F.Mask))
  (pad "" np_thru_hole circle (at 1.15 -1.35) (size 0.9 0.9) (drill 0.9) (layers *.Cu *.Mask))
  (pad "" np_thru_hole circle (at -1.15 -1.35) (size 0.9 0.9) (drill 0.9) (layers *.Cu *.Mask))
  (pad 2 smd rect (at 2.1 0) (size 0.8 0.9) (layers F.Cu F.Paste F.Mask))
  (pad 1 smd rect (at -2.1 0) (size 0.8 0.9) (layers F.Cu F.Paste F.Mask))
)
