(module USB_A_Molex_105057_Vertical (layer F.Cu) (tedit 5CB90422)
  (descr https://www.molex.com/pdm_docs/sd/1050570001_sd.pdf)
  (tags "USB A Vertical")
  (fp_text reference REF** (at -0.08 -11.93) (layer F.SilkS)
    (effects (font (size 1 1) (thickness 0.15)))
  )
  (fp_text value USB_A_Molex_105057_Vertical (at 2.68 1.9) (layer F.Fab)
    (effects (font (size 1 1) (thickness 0.15)))
  )
  (fp_line (start 6.3 1.09) (end -1.99 1.09) (layer F.SilkS) (width 0.12))
  (fp_line (start 6.28 -3.45) (end 6.28 -8.4) (layer F.SilkS) (width 0.12))
  (fp_line (start 6.28 -8.4) (end 3.68 -8.4) (layer F.SilkS) (width 0.12))
  (fp_line (start -2.1 -8.4) (end 0.5 -8.4) (layer F.SilkS) (width 0.12))
  (fp_line (start -2.1 -8.4) (end -2.1 -3.45) (layer F.SilkS) (width 0.12))
  (fp_line (start 6.23 0.96) (end 0.65 0.96) (layer F.Fab) (width 0.1))
  (fp_line (start -0.69 0.96) (end -1.98 0.96) (layer F.Fab) (width 0.1))
  (fp_line (start 0 0.2) (end 0.65 0.96) (layer F.Fab) (width 0.1))
  (fp_line (start -0.69 0.96) (end 0 0.2) (layer F.Fab) (width 0.1))
  (fp_line (start -2.2 -12.8) (end 6.38 -12.8) (layer F.CrtYd) (width 0.05))
  (fp_line (start -2.2 1.19) (end -2.2 -12.8) (layer F.CrtYd) (width 0.05))
  (fp_line (start 6.38 1.19) (end -2.2 1.19) (layer F.CrtYd) (width 0.05))
  (fp_line (start 6.38 -12.8) (end 6.38 1.19) (layer F.CrtYd) (width 0.05))
  (fp_line (start -1.98 0.96) (end -1.98 -8.29) (layer F.Fab) (width 0.1))
  (fp_line (start 6.23 -8.29) (end 6.23 0.95) (layer F.Fab) (width 0.1))
  (fp_line (start -1.98 -8.29) (end 6.21 -8.29) (layer F.Fab) (width 0.1))
  (fp_text user %R (at 3.45 -2.15) (layer F.Fab)
    (effects (font (size 1 1) (thickness 0.15)))
  )
  (pad 5 thru_hole oval (at 2.1 -7.6 90) (size 1.5 3.2) (drill oval 0.9 2.6) (layers *.Cu *.Mask))
  (pad 5 thru_hole oval (at 5.18 -2) (size 2 2.4) (drill oval 1.4 1.84) (layers *.Cu *.Mask))
  (pad 5 thru_hole oval (at -0.98 -2 180) (size 2 2.4) (drill oval 1.4 1.84) (layers *.Cu *.Mask))
  (pad 4 thru_hole circle (at 4.2 0) (size 1.2 1.2) (drill 0.8) (layers *.Cu *.Mask))
  (pad 3 thru_hole circle (at 2.8 0) (size 1.2 1.2) (drill 0.8) (layers *.Cu *.Mask))
  (pad 2 thru_hole circle (at 1.4 0) (size 1.2 1.2) (drill 0.8) (layers *.Cu *.Mask))
  (pad 1 thru_hole rect (at 0 0) (size 1.2 1.2) (drill 0.8) (layers *.Cu *.Mask))
  (model ${KISYS3DMOD}/Connector_USB.3dshapes/USB_A_Molex_105057_Vertical.wrl
    (at (xyz 0 0 0))
    (scale (xyz 1 1 1))
    (rotate (xyz 0 0 0))
  )
)
