(module Hongfa_HF49FD_1Hx2 (layer F.Cu) (tedit 5C928E3B)
  (descr https://www.tme.eu/en/Document/f3d887acae5a2f74997c256c6736c56d/HF49FD_en.pdf)
  (tags "Relay or Contactor")
  (fp_text reference K** (at 0 0) (layer F.SilkS)
    (effects (font (size 1.27 1.27) (thickness 0.254)))
  )
  (fp_text value Hongfa_HF49FD_1Hx2 (at 0 0) (layer F.SilkS) hide
    (effects (font (size 1.27 1.27) (thickness 0.254)))
  )
  (fp_arc (start -9.1 2.75) (end -9 2.75) (angle 180) (layer F.SilkS) (width 0.2))
  (fp_arc (start -9.1 2.75) (end -9.2 2.75) (angle 180) (layer F.SilkS) (width 0.2))
  (fp_line (start -9 2.75) (end -9 2.75) (layer F.SilkS) (width 0.2))
  (fp_line (start -9.2 2.75) (end -9.2 2.75) (layer F.SilkS) (width 0.2))
  (fp_line (start -11 3.85) (end -11 -3.85) (layer Dwgs.User) (width 0.1))
  (fp_line (start 11 3.85) (end -11 3.85) (layer Dwgs.User) (width 0.1))
  (fp_line (start 11 -3.85) (end 11 3.85) (layer Dwgs.User) (width 0.1))
  (fp_line (start -11 -3.85) (end 11 -3.85) (layer Dwgs.User) (width 0.1))
  (fp_line (start -10 2.15) (end -10 -2.85) (layer F.SilkS) (width 0.1))
  (fp_line (start 10 2.15) (end -10 2.15) (layer F.SilkS) (width 0.1))
  (fp_line (start 10 -2.85) (end 10 2.15) (layer F.SilkS) (width 0.1))
  (fp_line (start -10 -2.85) (end 10 -2.85) (layer F.SilkS) (width 0.1))
  (fp_line (start -10 2.15) (end -10 -2.85) (layer Dwgs.User) (width 0.2))
  (fp_line (start 10 2.15) (end -10 2.15) (layer Dwgs.User) (width 0.2))
  (fp_line (start 10 -2.85) (end 10 2.15) (layer Dwgs.User) (width 0.2))
  (fp_line (start -10 -2.85) (end 10 -2.85) (layer Dwgs.User) (width 0.2))
  (pad 4 thru_hole circle (at 8.89 0.95 90) (size 1.5 1.5) (drill 1) (layers *.Cu *.Mask))
  (pad 3 thru_hole circle (at 6.35 0.95 90) (size 1.5 1.5) (drill 1) (layers *.Cu *.Mask))
  (pad 2 thru_hole circle (at -1.27 0.95 90) (size 1.8 1.8) (drill 1.2) (layers *.Cu *.Mask))
  (pad 1 thru_hole circle (at -8.89 0.95 90) (size 1.8 1.8) (drill 1.2) (layers *.Cu *.Mask))
)
